"question","question_type","question_for","answers"
<<<<<<< HEAD
"It is hard for me to stay focused.","screening","patient","Yes Very Often,No Never,Yes Often,No Sometimes"
"I can't keep organized.","followup","patient","Very Often, almost always,Never or rarely,Often,Sometimes"
"I don't hear when others are talking to me.","followup","patient","Very Often, almost always,Never or rarely,Often,Sometimes"
"I get distracted and get off-task.","followup","patient","Very Often, almost always,Never or rarely,Often,Sometimes"
"I put off homework and things that take focus.","followup","patient","Very Often, almost always,Never or rarely,Often,Sometimes"
"I can't find my stuff when I need it.","followup","patient","Very Often, almost always,Never or rarely,Often,Sometimes"
"I am often forgetful.","followup","patient","Very Often, almost always,Never or rarely,Often,Sometimes"
"Is it causing problems with peers?","Impairment","patient","Never or rarely,Very Often, almost always"
"I get anxious when I have to be around new people or situations.","screening","patient","Very Often,Rarely or Never,Often,Sometimes"
"I move around a lot even when I’m supposed to sit still (like at school, during a meal, or at church).","followup","patient","Sometimes,Never or rarely,Often,Very Often, almost always"
"I don’t stay in my seat when I’m supposed to stay seated.","followup","patient","Never or rarely,Sometimes,Often,Very Often, almost always"
"I get in trouble for being loud when I’m supposed to be quiet.","followup","patient","Never or rarely,Sometimes,Often,Very Often, almost always"
"I have lots of energy and am ""on the go.""","screening","patient","Very Often, almost always,Never or rarely,Often,Sometimes"
"Other people think I talk too much.","followup","patient","Very Often, almost always,Never or rarely,Often,Sometimes"
"I blurt out the answer before the question is finished.","followup","patient","Never or rarely,Sometimes,Often,Very Often, almost always"
"It's hard to wait my turn.","followup","patient","Very Often, almost always,Never or rarely,Often,Sometimes"
"I make careless mistakes.","followup","patient","Very Often, almost always,Never or rarely,Often,Sometimes"
"Is it causing problems at home?","Impairment","patient","Never or rarely,Sometimes,Very Often, almost always"
"Is it causing problems at school?","Impairment","patient","Never or rarely,Very Often, almost always"
"I interrupt or intrude on other people (like butting into conversations or games that I’m not a part of).","followup","patient","Never or rarely,Sometimes,Often,Very Often, almost always"
"I can't sit still.","screening","patient","Never or rarely,Sometimes,Often,Very Often, almost always"
"If I can, I’d rather not be near people.","followup","patient","Very Often,Rarely or Never,Often,Sometimes"
"It's hard to make friends because of my shyness or nerves","followup","patient","Very Often,Rarely or Never,Often,Sometimes"
"When I must be around people, I get uncomfortable to the point that I cry or stop talking.","followup","patient","Very Often,Rarely or Never,Often,Sometimes"
"I like to be around people that I know well, like my family or friends.","followup","patient","Very Often,Rarely or Never,Often,Sometimes"
"I get self-conscious or embarrassed about how I act around new people.","followup","patient","Very Often,Rarely or Never,Often,Sometimes"
"Is it causing problems at home?","Impairment","patient","Never or rarely,Very Often, almost always"
"I worry about lots of things","screening","patient","Never or rarely,Sometimes,Often,Very Often, almost always"
"I need people to tell me things are okay when I’m upset.","screening","patient","Never or rarely,Sometimes,Often,Very Often, almost always"
"I’m worried  that I will get sick or hurt.","followup","patient","Never or rarely,Sometimes,Often,Very Often, almost always"
"I worry that I’m not doing a good enough job.","followup","patient","Never or rarely,Sometimes,Often,Very Often, almost always"
"I feel anxious but I don’t  know why.","followup","patient","Never or rarely,Sometimes,Often,Very Often, almost always"
"I have a hard time relaxing or concentrating.","followup","patient","Never or rarely,Sometimes,Often,Very Often, almost always"
"I feel tense.","followup","patient","Never or rarely,Sometimes,Often,Very Often, almost always"
"I feel nervous.","followup","patient","Never or rarely,Sometimes,Often,Very Often, almost always"
"I have a hard time falling asleep.","followup","patient","Very Often,Often,Sometimes"
"I sweat, my mouth gets dry, or my heart beats fast or skips a beat.","followup","patient","Very Often,Rarely or Never,Often,Sometimes"
"I get headaches and/or stomachaches.","followup","patient","Very Often,Rarely or Never,Often,Sometimes"
"Is it causing problems with peers?","Impairment","patient","No,Yes"
"Is it causing problems at school?","Impairment","patient","No,Yes"
"Is it causing problems at home?","Impairment","patient","No,Yes"
"I feel much happier than usual.","screening","patient","Never or rarely,Sometimes,Often,Very Often, almost always"
"Is it causing problems with peers?","Impairment","patient","No,Yes"
"I have much  more energy than usual.","screening","patient","Never or rarely,Sometimes,Often,Very Often, almost always"
"Things make me mad much more easily than usual.","screening","patient","Very Often, almost always,Never or rarely,Often,Sometimes"
"I feel more restless and want to move around more than usual.","followup","patient","Very Often, almost always,Never or rarely,Often,Sometimes"
"I’m talking more than usual.","followup","patient","Very Often, almost always,Never or rarely,Often,Sometimes"
"I’m more distracted than usual, which is making it hard to concentrate.","followup","patient","Never or rarely,Sometimes,Often,Very Often, almost always"
"My thoughts are racing.","followup","patient","Never or rarely,Sometimes,Often,Very Often, almost always"
"I say or do whatever I want without thinking about if it’s appropriate.","followup","patient","Sometimes,Never or rarely,Often,Very Often, almost always"
"I am sleeping less and do not feel tired.","followup","patient","Never or rarely,Sometimes,Often,Very Often, almost always"
"I don’t need as much sleep to feel energized.","followup","patient","Never or rarely,Sometimes,Often,Very Often, almost always"
"I feel really good about myself and/or like I’m better than everyone else.","followup","patient","Very Often, almost always,Never or rarely,Often,Sometimes"
"I frequently change my plans from one thing to another.","followup","patient","Never or rarely,Sometimes,Often,Very Often, almost always"
"People are telling me that I’m acting more irresponsible than usual.","followup","patient","Never or rarely,Sometimes,Often,Very Often, almost always"
"People tell me I’m being reckless.","followup","patient","Very Often, almost always,Never or rarely,Often,Sometimes"
"I’m more interested in sex and/or having more sex than normal.","followup","patient","Never or rarely,Sometimes,Often,Very Often, almost always"
"I’m spending more time around people and act overly comfortable with them.","followup","patient","Never or rarely,Sometimes,Often,Very Often, almost always"
"I have amazing skills or powers.","followup","patient","Very Often, almost always,Never or rarely,Often,Sometimes"
"I get distracted easily.","followup","patient","Never or rarely,Sometimes,Often,Very Often, almost always"
"Is it causing problems with peers?","Impairment","patient","No,Yes"
"Is it causing problems at home?","Impairment","patient","No,Yes"
"Is it causing problems at school?","Impairment","patient","No,Yes"
"My child can't stay focused.","screening","caregiver","Yes Very Often,No Sometimes"
"He/she becomes anxious around new people or new situations.","screening","caregiver","Very Often,Rarely or never,Often,Sometimes"
"How long has this been going on?","duration","caregiver","A Few Days or Less,Weeks,Months,Years"
"He/she avoids situations in which he/she has to be around others.","screening","caregiver","Very Often,Rarely or never,Often,Sometimes"
"Is it causing problems at school?","Impairment","caregiver","Yes,No"
"Is it causing problems at home?","Impairment","caregiver","Yes,No"
"How long has this been going on?","duration","patient","A Few Days or Less,Weeks,Months,Years"
"Is it causing problems with peers?","Impairment","caregiver","Yes,No"
"He/she is distracted when they tries to study.","screening","caregiver","Yes Often,Yes Very Often,No Sometimes,No Never"
"Is it causing problems with peers?","Impairment","caregiver","Yes,No"
"Is it causing problems with peers?","Impairment","caregiver","Yes,No"
"Is it causing problems at home?","Impairment","caregiver","Yes,No"
"Is it causing problems at home?","Impairment","caregiver","No,Yes"
"How long has this been going on?","duration","caregiver","Yes,No"
"How long has this been going on?","duration","caregiver","A Few Days or Less,Weeks,Months,Years"
"Is it causing problems at school?","Impairment","caregiver","Yes,No"
"Is it causing problems at school?","Impairment","caregiver","No,Yes"
"Is it causing problems at school?","Impairment","patient","No,Yes"
"I cut or burn myself.","screening","patient","No,Yes"
"I have tried to kill myself.","screening","patient","No,Yes"
"I have a plan of how I would kill myself.","screening","patient","No,Yes"
"Someone has touched me where they are not supposed to.","screening","patient","No,Yes"
"I had something bad happen to me (like a bad accident, or getting attacked).","screening","patient","No,Yes"
"I drink alcohol.","screening","patient","No,Yes"
"I smoke.","screening","patient","No,Yes"
"I use things to get high.","screening","patient","No,Yes"
"I have been hit so hard it left a mark.","screening","patient","No,Yes"
"How long has this been going on?","duration","patient","A Few Days or Less,Weeks,Months,Years"
"How long has this been going on?","duration","patient","A Few Days or Less,Weeks,Months,Years"
"I get really mad easily.","screening","patient","Very Often,Rarely or never,Often,Sometimes"
"I argue with adults.","screening","patient","Very Often,Rarely or Never,Often,Sometimes"
"I feel sad most of the day.","screening","patient","Very Often,Rarely or Never,Often,Sometimes"
"The things that I normally like to do are not fun anymore.","screening","patient","Very Often,Rarely or Never,Often,Sometimes"
"I feel tired.","screening","patient","Very Often,Rarely or Never,Often,Sometimes"
"I have low confidence or self-esteem.","followup","patient","Very Often,Rarely or Never,Often,Sometimes"
"I feel too guilty.","followup","patient","Very Often,Rarely or Never,Often,Sometimes"
"I have trouble thinking or concentrating.","followup","patient","Very Often,Rarely or Never,Often,Sometimes"
"I have a hard time making decisions.","followup","patient","Very Often,Rarely or Never,Often,Sometimes"
"I am restless and have a hard time sitting still.","followup","patient","Very Often,Rarely or Never,Often,Sometimes"
"Others have told me that I talk or move more slowly than normal.","followup","patient","Very Often,Rarely or Never,Often,Sometimes"
"I’ve been sleeping less than usual.","followup","patient","Very Often,Rarely or Never,Often,Sometimes"
"I’ve been sleeping more than usual.","followup","patient","Very Often,Rarely or Never,Often,Sometimes"
"I’m more hungry than usual.","followup","patient","Very Often,Rarely or Never,Often,Sometimes"
"I’m less hungry than usual.","followup","patient","Very Often,Rarely or Never,Often,Sometimes"
"I’ve lost weight.","followup","patient","Very Often,Rarely or Never,Often,Sometimes,Yes"
"I’ve gained weight.","followup","patient","Very Often,Rarely or Never,Often,Sometimes"
"I think about death and suicide.","followup","patient","Very Often,Rarely or Never,Often,Sometimes"
"How long has this been going on?","duration","patient","A Few Days or Less,Weeks,Months,Years"
"Is it causing problems at home?","Impairment","patient","No,Yes"
"Is it causing problems with peers?","Impairment","patient","No,Yes"
"Is it causing problems at school?","Impairment","patient","No,Yes"
"I worry that my parent will leave and not come back.","screening","patient","Very Often,Rarely or Never,Often,Sometimes"
"I worry that my parent will get hurt or die.","screening","patient","Very Often,Rarely or Never,Often,Sometimes"
"I worry that something bad will keep me away from my parents (like getting lost or kidnapped).","followup","patient","Very Often,Rarely or Never,Often,Sometimes"
"I would rather stay at home to be close to my parent than go to school.","followup","patient","Very Often,Rarely or Never,Often,Sometimes"
"I don’t  like to fall asleep without my parent nearby.","followup","patient","Very Often,Rarely or Never,Often,Sometimes"
"I wake up at night to check on my parents or sleep in their bed.","followup","patient","Very Often,Rarely or Never,Often,Sometimes"
"I don’t like to spend the night away from home.","followup","patient","Very Often,Rarely or Never,Often,Sometimes"
"I don’t like being left home alone without my parents.","followup","patient","Very Often,Rarely or Never,Often,Sometimes"
"I get nightmares about being separated from my parents.","followup","patient","Very Often,Rarely or Never,Often,Sometimes"
"I get stomachaches or headaches when I have to be away from my parents for too long.","followup","patient","Very Often,Rarely or Never,Often,Sometimes"
"I start to cry or become anxious when I get separated from my parents.","followup","patient","Very Often,Rarely or Never,Often,Sometimes"
"I don’t like to be away from home.","followup","patient","Very Often,Rarely or Never,Often,Sometimes"
"When I have to leave the house, I want to be able to talk to my parents and go home.","followup","patient","Very Often,Rarely or Never,Often,Sometimes"
"When I’m away from my parents, I feel miserable and I don’t feel like talking to anyone else.","followup","patient","Very Often,Rarely or Never,Often,Sometimes"
"How long has this been going on?","duration","patient","A Few Days or Less,Weeks,Months,Years"
"Is it causing problems at home?","Impairment","patient","No,Yes"
"Is it causing problems with peers?","Impairment","patient","No,Yes"
"Is it causing problems at school?","Impairment","patient","No,Yes"
"I worry about lots of things.","screening","patient","Very Often,Rarely or Never,Often,Sometimes"
"How long has this been going on?","duration","patient","A Few Days or Less,Weeks,Months,Years"
"I worry that I’m not doing a good enough job.","followup","patient","Very Often,Rarely or Never,Often,Sometimes"
"I need people to tell me things are okay when I’m upset.","screening","patient","Very Often,Rarely or Never,Often,Sometimes"
"I’m worried  that I will get sick or hurt.","followup","patient","Very Often,Rarely or Never,Often,Sometimes"
"I feel anxious but I don’t know why.","followup","patient","Very Often,Rarely or Never,Often,Sometimes"
"I feel tense.","followup","patient","Very Often,Rarely or Never,Often,Sometimes"
"I feel nervous.","followup","patient","Very Often,Rarely or Never,Often,Sometimes"
"I have a hard time falling asleep.","followup","patient","Very Often,Rarely or Never,Often,Sometimes"
"I have flashbacks, vivid memories, or nightmares about it.","followup","patient","Very Often,Rarely or Never,Often,Sometimes"
"I get upset when something reminds me of the bad thing that happened.","followup","patient","Very Often,Rarely or Never,Often,Sometimes"
"I try to avoid things that remind me of it.","followup","patient","Very Often,Rarely or Never,Often,Sometimes"
"I have trouble remembering the details about the bad thing that happened to me.","followup","patient","Very Often,Rarely or Never,Often,Sometimes"
"I have a hard time falling asleep or staying asleep.","followup","patient","Very Often,Rarely or Never,Often,Sometimes"
"I get annoyed or feel angry.","followup","patient","Very Often,Rarely or Never,Often,Sometimes"
"I have trouble concentrating.","followup","patient","Very Often,Rarely or Never,Often,Sometimes"
"I pay close attention to my environment so I can find danger.","followup","patient","Very Often,Rarely or Never,Often,Sometimes"
"I get scared or startled easily.","followup","patient","Very Often,Rarely or Never,Often,Sometimes"
"How long has this been going on?","duration","patient","A Few Days or Less,Weeks,Months,Years"
"Is it causing problems at home?","Impairment","patient","No,Yes"
"Is it causing problems with peers?","Impairment","patient","No,Yes"
"Is it causing problems at school?","Impairment","patient","No,Yes"
"I refuse to follow rules.","screening","patient","Very Often,Rarely or Never,Often,Sometimes"
"It's fun to annoy other people.","followup","patient","Very Often,Rarely or Never,Often,Sometimes"
"I blame other people when I do something wrong.","followup","patient","Very Often,Rarely or Never,Often,Sometimes"
"Other people annoy me easily.","followup","patient","Very Often,Rarely or Never,Often,Sometimes"
"I feel angry and resent the people around me.","followup","patient","Very Often,Rarely or Never,Often,Sometimes"
"I get revenge.","followup","patient","Very Often,Rarely or Never,Often,Sometimes"
"How long has this been happening?","duration","patient","A Few Days or Less,Weeks,Months,Years"
"I lie.","screening","patient","Very Often,Rarely or Never,Often,Sometimes"
"I take money without asking.","screening","patient","Very Often,Rarely or Never,Often,Sometimes"
"I skip school.","followup","patient","Very Often,Rarely or Never,Often,Sometimes"
"I bully other people.","followup","patient","Very Often,Rarely or Never,Often,Sometimes"
"I get into fights.","followup","patient","Very Often,Rarely or Never,Often,Sometimes"
"I use weapons such as a bat, brick, broken bottle, knife, or gun.","followup","patient","Very Often,Rarely or Never,Often,Sometimes"
"I stay out after dark without asking.","followup","patient","Very Often,Rarely or Never,Often,Sometimes"
"It's fun to physically hurt other people.","followup","patient","Very Often,Rarely or Never,Often,Sometimes"
"It's fun to hurt animals.","followup","patient","Very Often,Rarely or Never,Often,Sometimes"
"I break other people’s things on purpose.","followup","patient","Very Often,Rarely or Never,Often,Sometimes"
"I like to set fires.","followup","patient","Very Often,Rarely or Never,Often,Sometimes"
"I’ve taken things from other people outside of my home without them knowing (like shoplifting).","followup","patient","Very Often,Rarely or Never,Often,Sometimes"
"I run away from home.","followup","patient","Very Often,Rarely or Never,Often,Sometimes"
"I’ve taken other people's stuff from them (mugging).","followup","patient","Very Often,Rarely or Never,Often,Sometimes"
"I’ve forced someone to have sex with me.","followup","patient","Very Often,Rarely or Never,Often,Sometimes"
"I’ve broken into someone else’s house, building, or car.","followup","patient","Very Often,Rarely or Never,Often,Sometimes"
"I don't feel bad when others think I've done something wrong","followup","patient","Very Often,Rarely or Never,Often,Sometimes"
"I don't care when others are hurt or sad.","followup","patient","Very Often,Rarely or Never,Often,Sometimes"
"I don't care about my grades or school.","followup","patient","Very Often,Rarely or Never,Often,Sometimes"
"I don't share my feelings, unless it helps get what I want.","followup","patient","Very Often,Rarely or Never,Often,Sometimes"
"How long has this been going on?","duration","patient","A Few Days or Less,Weeks,Months,Years"
"Is it causing problems at home?","Impairment","patient","No,Yes"
"Is it causing problems with peers?","Impairment","patient","No,Yes"
"Is it causing problems at school?","Impairment","patient","No,Yes"
"My child worries about lots of things.","screening","caregiver","Very Often,Rarely or Never,Often,Sometimes"
"My child is sad most of the day.","screening","caregiver","Very Often,Rarely or Never,Often,Sometimes"
"My child is much happier than usual.","screening","caregiver","Very Often,Rarely or Never,Often"
"My child has much more energy than usual.","screening","caregiver","Very Often,Rarely or Never,Often,Sometimes"
"My child lost interest in things that they normally enjoy.","screening","caregiver","Very Often,Rarely or Never,Often,Sometimes"
"I have to keep telling my child that things are okay.","screening","caregiver","Very Often,Rarely or Never,Often,Sometimes"
"My child worries that they will get separated from me by getting lost or kidnapped.","followup","caregiver","Very Often,Rarely or Never,Often,Sometimes"
"My child is tired or fatigued.","screening","caregiver","Very Often,Rarely or Never,Often,Sometimes"
"My child is much more irritable than usual.","screening","caregiver","Very Often,Rarely or Never,Often,Sometimes"
"My child worries that I will leave and not come back.","screening","caregiver","Very Often,Rarely or Never,Often,Sometimes"
"My child looks sad or depressed.","followup","caregiver","Very Often,Rarely or Never,Often,Sometimes"
"My child has low confidence or self-esteem.","followup","caregiver","Very Often,Rarely or Never,Often,Sometimes"
"My child worries about doing well enough.","followup","caregiver","Very Often,Rarely or Never,Often,Sometimes"
"My child is more active and restless than usual.","followup","caregiver","Very Often,Rarely or Never,Often,Sometimes"
"My child seems to feel excessively guilty, even though they hasn’t done anything wrong.","followup","caregiver","Very Often,Rarely or Never,Often,Sometimes"
"My child worries that I will get hurt or die.","screening","caregiver","Very Often,Rarely or Never,Often,Sometimes"
"My child becomes anxious when I have to be around new people or situations.","screening","caregiver","Very Often,Rarely or Never,Often,Sometimes"
"My child worries that they will get sick or get hurt.","followup","caregiver","Very Often,Rarely or Never,Often,Sometimes"
"My child has a hard time thinking or concentrating.","followup","caregiver","Very Often,Rarely or Never,Often,Sometimes"
"My child would rather stay at home with me than have to be away from me at school.","followup","caregiver","Very Often,Rarely or Never,Often,Sometimes"
"My child is indecisive.","followup","caregiver","Very Often,Rarely or Never,Often,Sometimes"
"My child is anxious, even when there is no reason.","followup","caregiver","Very Often,Rarely or Never,Often,Sometimes"
"My child avoids situations in which they has to be around others.","followup","caregiver","Very Often,Rarely or Never,Often,Sometimes"
"My child is restless and has a hard time sitting still.","followup","caregiver","Very Often,Rarely or Never,Often,Sometimes"
"My child won’t fall asleep without being near me.","followup","caregiver","Very Often,Rarely or Never,Often,Sometimes"
"My child is tense.","followup","caregiver","Very Often,Rarely or Never,Often,Sometimes"
"My child speaks or moves more slowly than normal.","followup","caregiver","Very Often,Rarely or Never,Often,Sometimes"
"My child is much more talkative than usual.","followup","caregiver","Very Often,Rarely or Never,Often,Sometimes"
"My child becomes self-conscious or embarrassed about their behavior around unfamiliar people.","followup","caregiver","Very Often,Rarely or Never,Often,Sometimes"
"My child wakes up at night to check on me or sleep in my bed.","followup","caregiver","Very Often,Rarely or Never,Often,Sometimes"
"My child is sleeping less than usual.","followup","caregiver","Very Often,Rarely or Never,Often,Sometimes"
"My child has trouble relaxing or concentrating.","followup","caregiver","Very Often,Rarely or Never,Often,Sometimes"
"My child is sleeping more than usual.","followup","caregiver","Very Often,Rarely or Never,Often,Sometimes"
"My child is more distractible and is having trouble concentrating.","followup","caregiver","Very Often,Rarely or Never,Often,Sometimes"
"My child has a decreased appetite.","followup","caregiver","Very Often,Rarely or Never,Often,Sometimes"
"My child is nervous.","followup","caregiver","Very Often,Rarely or Never,Often,Sometimes"
"My child doesn’t want to sleep away from home.","followup","caregiver","Very Often,Rarely or Never,Often,Sometimes"
"My child has an increased appetite.","followup","caregiver","Very Often,Rarely or Never,Often,Sometimes"
"My child doesn’t like to be left alone.","followup","caregiver","Very Often,Rarely or Never,Often,Sometimes"
"My child has a hard time getting to sleep.","followup","caregiver","Very Often,Rarely or Never,Often,Sometimes"
"My child has lost weight.","followup","caregiver","Very Often,Rarely or Never,Often,Sometimes"
"My child has gained weight.","followup","caregiver","Very Often,Rarely or Never,Often,Sometimes"
"My child gets nightmares about being separated from me.","followup","caregiver","Very Often,Rarely or Never,Often,Sometimes"
"My child has a hard time making friends because of shyness or nerves.","followup","caregiver","Very Often,Rarely or Never,Often,Sometimes"
"My child has physical symptoms when they are anxious, such as sweating, dry mouth, or their heart beats fast or skips a beat.","followup","caregiver","Very Often,Rarely or Never,Often,Sometimes"
"My child thinks about death and suicide often.","followup","caregiver","Very Often,Rarely or Never,Often,Sometimes"
"My child cries, stops talking, or withdraws when in new or forced social situations.","followup","caregiver","Very Often,Rarely or Never,Often,Sometimes"
"My child gets stomachaches or headaches when they must be separated from me.","followup","caregiver","Very Often,Rarely or Never,Often,Sometimes"
"My child has satisfying relationships with family members or peers that they knows well.","followup","caregiver","Very Often,Rarely or Never,Often,Sometimes"
"My child becomes anxious or cries and throws tantrums when we are separated.","followup","caregiver","Very Often,Rarely or Never,Often,Sometimes"
"My child gets stomachaches or headaches but there is no physical cause for it.","followup","caregiver","Very Often,Rarely or Never,Often,Sometimes"
"My child does not like to leave our home.","followup","caregiver","Very Often,Rarely or Never,Often,Sometimes"
"My child had something seriously bad happen that threatened their safety or the people around them.","screening","caregiver","Very Often,Rarely or Never,Often,Sometimes"
"When my child is away from home, they feel the need to talk to me and/or to return home.","followup","caregiver","Very Often,Rarely or Never,Often,Sometimes"
"If my child is away from me, they becomes miserable and withdraws socially.","followup","caregiver","Very Often,Rarely or Never,Often,Sometimes"
"My child has been hit so hard that it left a mark.","screening","caregiver","Very Often,Rarely or Never,Often,Sometimes"
"My child loses their temper badly","screening","caregiver","Very Often,Rarely or Never,Often,Sometimes"
"My child has had someone sexually abuse them or assault them.","screening","caregiver","Very Often,Rarely or Never,Often,Sometimes"
"My child's thoughts are coming quickly as though their mind is racing.","followup","caregiver","Very Often,Rarely or Never,Often,Sometimes"
"My child is distracted when they try to study.","screening","caregiver","Very Often,Rarely or Never,Often,Sometimes"
"My child has flashbacks, vivid memories, or nightmares about it.","followup","caregiver","Very Often,Rarely or Never,Often,Sometimes"
"My child argues with adults.","screening","caregiver","Very Often,Rarely or Never,Often,Sometimes"
"My child lies.","screening","caregiver","A Few Days or Less,Weeks,Months,Years"
"My child becomes upset when something reminds them of the traumatic event.","followup","caregiver","Very Often,Rarely or Never,Often,Sometimes"
"My child disobeys.","screening","caregiver","Very Often,Rarely or Never,Often,Sometimes"
"My child can't stay focused.","screening","caregiver","Very Often,Rarely or Never,Often,Sometimes"
"My child steals money from our home.","screening","caregiver","A Few Days or Less,Weeks,Months,Years"
"My child avoids things that remind them of it.","followup","caregiver","Very Often,Rarely or Never,Often,Sometimes"
"My child annoys others on purpose.","followup","caregiver","Very Often,Rarely or Never,Often,Sometimes"
"My child makes careless mistakes.","followup","caregiver","Very Often,Rarely or Never,Often,Sometimes"
"My child skips school.","screening","caregiver","A Few Days or Less,Weeks,Months,Years"
"My child blames others for their own mistakes or misbehavior.","followup","caregiver","Very Often,Rarely or Never,Often,Sometimes"
"My child does not seem to listen when spoken to.","followup","caregiver","Very Often,Rarely or Never,Often,Sometimes"
"My child bullies and hurts others.","screening","caregiver","A Few Days or Less,Weeks,Months,Years"
"My child is off-task from the activity they is supposed to be completing.","followup","caregiver","Very Often,Rarely or Never,Often,Sometimes"
"My child has trouble remembering things about the traumatic event.","followup","caregiver","Very Often,Rarely or Never,Often,Sometimes"
"My child is touchy or easily annoyed by others.","followup","caregiver","Very Often,Rarely or Never,Often,Sometimes"
"My child has a hard time keeping things organized.","followup","caregiver","Very Often,Rarely or Never,Often,Sometimes"
"My child has a hard time falling asleep or staying asleep.","followup","caregiver","Very Often,Rarely or Never,Often,Sometimes"
"My child fights with other children, usually serving as the instigator to these fights.","followup","caregiver","A Few Days or Less,Weeks,Months,Years"
"My child avoids things that take focus, like homework.","followup","caregiver","Very Often,Rarely or Never,Often,Sometimes"
"My child gets annoyed or angry easily.","followup","caregiver","Very Often,Rarely or Never,Often,Sometimes"
"My child is angry or resentful.","followup","caregiver","Very Often,Rarely or Never,Often,Sometimes"
"My child uses weapons that can cause serious harm to others (like a bat, brick, broken bottle, knife, or gun).","followup","caregiver","A Few Days or Less,Weeks,Months,Years"
"My child has trouble concentrating.","followup","caregiver","Very Often,Rarely or Never,Often,Sometimes"
"My child often loses things needed for school or homework.","followup","caregiver","Very Often,Rarely or Never,Often,Sometimes"
"My child is spiteful; gets revenge.","followup","caregiver","Very Often,Rarely or Never,Often,Sometimes"
"My child seriously hurts other people on purpose.","followup","caregiver","A Few Days or Less,Weeks,Months,Years"
"My child pays close attention to their surroundings in an attempt to detect danger.","followup","caregiver","Very Often,Rarely or Never,Often,Sometimes"
"My child is often forgetful.","followup","caregiver","Very Often,Rarely or Never,Often,Sometimes"
"My child is startled easily.","followup","caregiver","Very Often,Rarely or Never,Often,Sometimes"
"My child hurts animals on purpose.","followup","caregiver","A Few Days or Less,Weeks,Months,Years"
"My child can't stay still; fidgets, wiggles.","screening","caregiver","Very Often,Rarely or Never,Often,Sometimes"
"My child breaks other people's things on purpose.","followup","caregiver","A Few Days or Less,Weeks,Months,Years"
"My child has lots of energy, like they are driven by a motor.","screening","caregiver","Very Often,Rarely or Never,Often,Sometimes"
"My child sets fire with the risk or goal of causing damage.","followup","caregiver","A Few Days or Less,Weeks,Months,Years"
"My child leaves their seat when he is expected to remain seated.","followup","caregiver","Very Often,Rarely or Never,Often,Sometimes"
"My child moves around a lot in situations where they is expected to be still (e.g., mealtimes, travel, visiting church).","followup","caregiver","Very Often,Rarely or Never,Often,Sometimes"
"My child steals from outside the home","followup","caregiver","A Few Days or Less,Weeks,Months,Years"
"My child has a hard time being quiet while playing.","followup","caregiver","Very Often,Rarely or Never,Often,Sometimes"
"My child runs away from home.","followup","caregiver","A Few Days or Less,Weeks,Months,Years"
"My child talks too much; is hard to interrupt.","followup","caregiver","Very Often,Rarely or Never,Often,Sometimes"
"My child takes things from other people by force (mugging, snatching purses).","followup","caregiver","A Few Days or Less,Weeks,Months,Years"
"My child blurts out answers to questions before questions have been completed.","followup","caregiver","Very Often,Rarely or Never,Often,Sometimes"
"My child has trouble waiting turns in games or group situations.","followup","caregiver","Very Often,Rarely or Never,Often,Sometimes"
"My child has forced someone to have sex.","followup","caregiver","A Few Days or Less,Weeks,Months,Years"
"My child interrupts or intrudes on others (e.g., butts into others’ conversations or games).","followup","caregiver","Very Often,Rarely or Never,Often,Sometimes"
"My child breaks into someone else’s house, building, or car.","followup","caregiver","A Few Days or Less,Weeks,Months,Years"
"My child does not feel guilty or bad when they have done something wrong.","followup","caregiver","A Few Days or Less,Weeks,Months,Years"
"My child does not feel empathy.","followup","caregiver","A Few Days or Less,Weeks,Months,Years"
"My child does not care about grades or school.","followup","caregiver","A Few Days or Less,Weeks,Months,Years"
"My child does not show feelings, unless it is to get what they want.","followup","caregiver","A Few Days or Less,Weeks,Months,Years"
"How long has this been going on?","duration","caregiver","A Few Days or Less,Weeks,Months,Years"
"Is it causing problems at home?","Impairment","caregiver","No,Yes"
"Is it causing problems with peers?","Impairment","caregiver","No,Yes"
"Is it causing problems at school?","Impairment","caregiver","No,Yes"
"Is it causing problems at home?","Impairment","caregiver","No,Yes"
"Is it causing problems with peers?","Impairment","caregiver","No,Yes"
=======
"Test Question for Mania","followup","patient","Yes,No"
"Test Question for screening","screening","patient","Yes,No"
>>>>>>> f85d622c5e6e066da4e3c6a6e39ba3f76a701d54
